^C:\USERS\BEN\DOWNLOADS\DIRECT3D TUTORIAL WIN32 SAMPLE (2)\C++\TUTORIAL02\COMBATENTITY.CPP
/c /I"C:\USERS\BEN\DOWNLOADS\DIRECT3D TUTORIAL WIN32 SAMPLE (2)\C++\\DIRECTXTK\INC" /AI"C:\USERS\BEN\DOCUMENTS\VISUAL STUDIO 2013\LIBS\DIRECTXTK-MASTER" /ZI /nologo /W4 /WX- /diagnostics:classic /Od /Oi /Oy- /D WIN32 /D _DEBUG /D DEBUG /D PROFILE /D _WINDOWS /D _WIN32_WINNT=0x0600 /D _UNICODE /D UNICODE /Gm- /EHsc /RTC1 /MDd /GS /arch:SSE2 /fp:fast /Zc:wchar_t /Zc:forScope /Zc:inline /openmp- /Fo"DEBUG\\" /Fd"DEBUG\VC141.PDB" /Gd /TP /analyze- /FC   C:\USERS\BEN\DOWNLOADS\DIRECT3D TUTORIAL WIN32 SAMPLE (2)\C++\TUTORIAL02\COMBATENTITY.CPP
^C:\USERS\BEN\DOWNLOADS\DIRECT3D TUTORIAL WIN32 SAMPLE (2)\C++\TUTORIAL02\ENTITY.CPP
/c /I"C:\USERS\BEN\DOWNLOADS\DIRECT3D TUTORIAL WIN32 SAMPLE (2)\C++\\DIRECTXTK\INC" /AI"C:\USERS\BEN\DOCUMENTS\VISUAL STUDIO 2013\LIBS\DIRECTXTK-MASTER" /ZI /nologo /W4 /WX- /diagnostics:classic /Od /Oi /Oy- /D WIN32 /D _DEBUG /D DEBUG /D PROFILE /D _WINDOWS /D _WIN32_WINNT=0x0600 /D _UNICODE /D UNICODE /Gm- /EHsc /RTC1 /MDd /GS /arch:SSE2 /fp:fast /Zc:wchar_t /Zc:forScope /Zc:inline /openmp- /Fo"DEBUG\\" /Fd"DEBUG\VC141.PDB" /Gd /TP /analyze- /FC   C:\USERS\BEN\DOWNLOADS\DIRECT3D TUTORIAL WIN32 SAMPLE (2)\C++\TUTORIAL02\ENTITY.CPP
^C:\USERS\BEN\DOWNLOADS\DIRECT3D TUTORIAL WIN32 SAMPLE (2)\C++\TUTORIAL02\GAME.CPP
/c /I"C:\USERS\BEN\DOWNLOADS\DIRECT3D TUTORIAL WIN32 SAMPLE (2)\C++\\DIRECTXTK\INC" /AI"C:\USERS\BEN\DOCUMENTS\VISUAL STUDIO 2013\LIBS\DIRECTXTK-MASTER" /ZI /nologo /W4 /WX- /diagnostics:classic /Od /Oi /Oy- /D WIN32 /D _DEBUG /D DEBUG /D PROFILE /D _WINDOWS /D _WIN32_WINNT=0x0600 /D _UNICODE /D UNICODE /Gm- /EHsc /RTC1 /MDd /GS /arch:SSE2 /fp:fast /Zc:wchar_t /Zc:forScope /Zc:inline /openmp- /Fo"DEBUG\\" /Fd"DEBUG\VC141.PDB" /Gd /TP /analyze- /FC   C:\USERS\BEN\DOWNLOADS\DIRECT3D TUTORIAL WIN32 SAMPLE (2)\C++\TUTORIAL02\GAME.CPP
^C:\USERS\BEN\DOWNLOADS\DIRECT3D TUTORIAL WIN32 SAMPLE (2)\C++\TUTORIAL02\INVADER.CPP
/c /I"C:\USERS\BEN\DOWNLOADS\DIRECT3D TUTORIAL WIN32 SAMPLE (2)\C++\\DIRECTXTK\INC" /AI"C:\USERS\BEN\DOCUMENTS\VISUAL STUDIO 2013\LIBS\DIRECTXTK-MASTER" /ZI /nologo /W4 /WX- /diagnostics:classic /Od /Oi /Oy- /D WIN32 /D _DEBUG /D DEBUG /D PROFILE /D _WINDOWS /D _WIN32_WINNT=0x0600 /D _UNICODE /D UNICODE /Gm- /EHsc /RTC1 /MDd /GS /arch:SSE2 /fp:fast /Zc:wchar_t /Zc:forScope /Zc:inline /openmp- /Fo"DEBUG\\" /Fd"DEBUG\VC141.PDB" /Gd /TP /analyze- /FC   C:\USERS\BEN\DOWNLOADS\DIRECT3D TUTORIAL WIN32 SAMPLE (2)\C++\TUTORIAL02\INVADER.CPP
^C:\USERS\BEN\DOWNLOADS\DIRECT3D TUTORIAL WIN32 SAMPLE (2)\C++\TUTORIAL02\MOVINGENTITY.CPP
/c /I"C:\USERS\BEN\DOWNLOADS\DIRECT3D TUTORIAL WIN32 SAMPLE (2)\C++\\DIRECTXTK\INC" /AI"C:\USERS\BEN\DOCUMENTS\VISUAL STUDIO 2013\LIBS\DIRECTXTK-MASTER" /ZI /nologo /W4 /WX- /diagnostics:classic /Od /Oi /Oy- /D WIN32 /D _DEBUG /D DEBUG /D PROFILE /D _WINDOWS /D _WIN32_WINNT=0x0600 /D _UNICODE /D UNICODE /Gm- /EHsc /RTC1 /MDd /GS /arch:SSE2 /fp:fast /Zc:wchar_t /Zc:forScope /Zc:inline /openmp- /Fo"DEBUG\\" /Fd"DEBUG\VC141.PDB" /Gd /TP /analyze- /FC   C:\USERS\BEN\DOWNLOADS\DIRECT3D TUTORIAL WIN32 SAMPLE (2)\C++\TUTORIAL02\MOVINGENTITY.CPP
^C:\USERS\BEN\DOWNLOADS\DIRECT3D TUTORIAL WIN32 SAMPLE (2)\C++\TUTORIAL02\TUTORIAL02.CPP
/c /I"C:\USERS\BEN\DOWNLOADS\DIRECT3D TUTORIAL WIN32 SAMPLE (2)\C++\\DIRECTXTK\INC" /AI"C:\USERS\BEN\DOCUMENTS\VISUAL STUDIO 2013\LIBS\DIRECTXTK-MASTER" /ZI /nologo /W4 /WX- /diagnostics:classic /Od /Oi /Oy- /D WIN32 /D _DEBUG /D DEBUG /D PROFILE /D _WINDOWS /D _WIN32_WINNT=0x0600 /D _UNICODE /D UNICODE /Gm- /EHsc /RTC1 /MDd /GS /arch:SSE2 /fp:fast /Zc:wchar_t /Zc:forScope /Zc:inline /openmp- /Fo"DEBUG\\" /Fd"DEBUG\VC141.PDB" /Gd /TP /analyze- /FC   C:\USERS\BEN\DOWNLOADS\DIRECT3D TUTORIAL WIN32 SAMPLE (2)\C++\TUTORIAL02\TUTORIAL02.CPP
^C:\USERS\BEN\DOCUMENTS\UNIVERSITY_WORK\DIRECTX\SPACE INVADERS\TUTORIAL02\COMBATENTITY.CPP
/c /I"C:\USERS\BEN\DOCUMENTS\UNIVERSITY_WORK\DIRECTX\SPACE INVADERS\\DIRECTXTK\INC" /AI"C:\USERS\BEN\DOCUMENTS\VISUAL STUDIO 2013\LIBS\DIRECTXTK-MASTER" /ZI /nologo /W4 /WX- /diagnostics:classic /Od /Oi /Oy- /D WIN32 /D _DEBUG /D DEBUG /D PROFILE /D _WINDOWS /D _WIN32_WINNT=0x0600 /D _UNICODE /D UNICODE /Gm- /EHsc /RTC1 /MDd /GS /arch:SSE2 /fp:fast /Zc:wchar_t /Zc:forScope /Zc:inline /openmp- /Fo"DEBUG\\" /Fd"DEBUG\VC141.PDB" /Gd /TP /analyze- /FC   C:\USERS\BEN\DOCUMENTS\UNIVERSITY_WORK\DIRECTX\SPACE INVADERS\TUTORIAL02\COMBATENTITY.CPP
^C:\USERS\BEN\DOCUMENTS\UNIVERSITY_WORK\DIRECTX\SPACE INVADERS\TUTORIAL02\ENTITY.CPP
/c /I"C:\USERS\BEN\DOCUMENTS\UNIVERSITY_WORK\DIRECTX\SPACE INVADERS\\DIRECTXTK\INC" /AI"C:\USERS\BEN\DOCUMENTS\VISUAL STUDIO 2013\LIBS\DIRECTXTK-MASTER" /ZI /nologo /W4 /WX- /diagnostics:classic /Od /Oi /Oy- /D WIN32 /D _DEBUG /D DEBUG /D PROFILE /D _WINDOWS /D _WIN32_WINNT=0x0600 /D _UNICODE /D UNICODE /Gm- /EHsc /RTC1 /MDd /GS /arch:SSE2 /fp:fast /Zc:wchar_t /Zc:forScope /Zc:inline /openmp- /Fo"DEBUG\\" /Fd"DEBUG\VC141.PDB" /Gd /TP /analyze- /FC   C:\USERS\BEN\DOCUMENTS\UNIVERSITY_WORK\DIRECTX\SPACE INVADERS\TUTORIAL02\ENTITY.CPP
^C:\USERS\BEN\DOCUMENTS\UNIVERSITY_WORK\DIRECTX\SPACE INVADERS\TUTORIAL02\GAME.CPP
/c /I"C:\USERS\BEN\DOCUMENTS\UNIVERSITY_WORK\DIRECTX\SPACE INVADERS\\DIRECTXTK\INC" /AI"C:\USERS\BEN\DOCUMENTS\VISUAL STUDIO 2013\LIBS\DIRECTXTK-MASTER" /ZI /nologo /W4 /WX- /diagnostics:classic /Od /Oi /Oy- /D WIN32 /D _DEBUG /D DEBUG /D PROFILE /D _WINDOWS /D _WIN32_WINNT=0x0600 /D _UNICODE /D UNICODE /Gm- /EHsc /RTC1 /MDd /GS /arch:SSE2 /fp:fast /Zc:wchar_t /Zc:forScope /Zc:inline /openmp- /Fo"DEBUG\\" /Fd"DEBUG\VC141.PDB" /Gd /TP /analyze- /FC   C:\USERS\BEN\DOCUMENTS\UNIVERSITY_WORK\DIRECTX\SPACE INVADERS\TUTORIAL02\GAME.CPP
^C:\USERS\BEN\DOCUMENTS\UNIVERSITY_WORK\DIRECTX\SPACE INVADERS\TUTORIAL02\INVADER.CPP
/c /I"C:\USERS\BEN\DOCUMENTS\UNIVERSITY_WORK\DIRECTX\SPACE INVADERS\\DIRECTXTK\INC" /AI"C:\USERS\BEN\DOCUMENTS\VISUAL STUDIO 2013\LIBS\DIRECTXTK-MASTER" /ZI /nologo /W4 /WX- /diagnostics:classic /Od /Oi /Oy- /D WIN32 /D _DEBUG /D DEBUG /D PROFILE /D _WINDOWS /D _WIN32_WINNT=0x0600 /D _UNICODE /D UNICODE /Gm- /EHsc /RTC1 /MDd /GS /arch:SSE2 /fp:fast /Zc:wchar_t /Zc:forScope /Zc:inline /openmp- /Fo"DEBUG\\" /Fd"DEBUG\VC141.PDB" /Gd /TP /analyze- /FC   C:\USERS\BEN\DOCUMENTS\UNIVERSITY_WORK\DIRECTX\SPACE INVADERS\TUTORIAL02\INVADER.CPP
^C:\USERS\BEN\DOCUMENTS\UNIVERSITY_WORK\DIRECTX\SPACE INVADERS\TUTORIAL02\MOVINGENTITY.CPP
/c /I"C:\USERS\BEN\DOCUMENTS\UNIVERSITY_WORK\DIRECTX\SPACE INVADERS\\DIRECTXTK\INC" /AI"C:\USERS\BEN\DOCUMENTS\VISUAL STUDIO 2013\LIBS\DIRECTXTK-MASTER" /ZI /nologo /W4 /WX- /diagnostics:classic /Od /Oi /Oy- /D WIN32 /D _DEBUG /D DEBUG /D PROFILE /D _WINDOWS /D _WIN32_WINNT=0x0600 /D _UNICODE /D UNICODE /Gm- /EHsc /RTC1 /MDd /GS /arch:SSE2 /fp:fast /Zc:wchar_t /Zc:forScope /Zc:inline /openmp- /Fo"DEBUG\\" /Fd"DEBUG\VC141.PDB" /Gd /TP /analyze- /FC   C:\USERS\BEN\DOCUMENTS\UNIVERSITY_WORK\DIRECTX\SPACE INVADERS\TUTORIAL02\MOVINGENTITY.CPP
^C:\USERS\BEN\DOCUMENTS\UNIVERSITY_WORK\DIRECTX\SPACE INVADERS\TUTORIAL02\TUTORIAL02.CPP
/c /I"C:\USERS\BEN\DOCUMENTS\UNIVERSITY_WORK\DIRECTX\SPACE INVADERS\\DIRECTXTK\INC" /AI"C:\USERS\BEN\DOCUMENTS\VISUAL STUDIO 2013\LIBS\DIRECTXTK-MASTER" /ZI /nologo /W4 /WX- /diagnostics:classic /Od /Oi /Oy- /D WIN32 /D _DEBUG /D DEBUG /D PROFILE /D _WINDOWS /D _WIN32_WINNT=0x0600 /D _UNICODE /D UNICODE /Gm- /EHsc /RTC1 /MDd /GS /arch:SSE2 /fp:fast /Zc:wchar_t /Zc:forScope /Zc:inline /openmp- /Fo"DEBUG\\" /Fd"DEBUG\VC141.PDB" /Gd /TP /analyze- /FC   C:\USERS\BEN\DOCUMENTS\UNIVERSITY_WORK\DIRECTX\SPACE INVADERS\TUTORIAL02\TUTORIAL02.CPP
